{
"scenario_name": "Blocking at end test (counter spin)",
"benchmark_name": "Counter Spin",
"label": "Kernel 1",
"max_resident_threads": 139264,
"data_size": 0,
"release_time": 0.750000,
"PID": 28011,
"TID": 28029,
"times": [{},
{"copy_in_times": [0.820747291,0.820747495], "execute_times": [0.820747512,1.166381378], "copy_out_times": [1.166381513,1.166406913], "cpu_times": [0.820747291,1.166406913]},
{"kernel_name": "CounterSpin", "block_count": 1, "thread_count": 256, "shared_memory": 0, "cuda_launch_times": [0.820747786, 0.820775106, 1.166381106], "block_times": [0.820854085,1.166380132], "block_smids": [0], "cpu_core": 2}
]}